[gd_resource type="StyleBoxTexture" load_steps=2 format=3 uid="uid://dd7xaxishsomm"]

[ext_resource type="Texture2D" uid="uid://cw3befdsoftfr" path="res://visuals/patches/patch-panel-border01.png" id="1_0grnw"]

[resource]
content_margin_top = 2.0
content_margin_bottom = 2.0
texture = ExtResource("1_0grnw")
texture_margin_left = 1.0
texture_margin_top = 1.0
texture_margin_right = 1.0
texture_margin_bottom = 1.0
region_rect = Rect2(0, 0, 7, 7)
modulate_color = Color(0, 0, 0, 0.188235)
