[gd_resource type="StyleBoxTexture" load_steps=2 format=3 uid="uid://bnaw5cd54bngc"]

[ext_resource type="Texture2D" uid="uid://bda1803efkowf" path="res://visuals/patches/patch-button-normal1-down.png" id="1_sujkh"]

[resource]
content_margin_left = 2.0
content_margin_top = 2.0
content_margin_right = 1.0
content_margin_bottom = 2.0
texture = ExtResource("1_sujkh")
texture_margin_left = 2.0
texture_margin_top = 2.0
texture_margin_right = 2.0
texture_margin_bottom = 2.0
region_rect = Rect2(0, 0, 7, 7)
